{
	"info": {
		"_postman_id": "352ac5ac-cd83-407f-90be-317c15521025",
		"name": "mainzelliste_addPatient_diffIDTypes_sameIDString",
		"schema": "https://schema.getpostman.com/json/collection/v2.1.0/collection.json",
		"_exporter_id": "20315975"
	},
	"item": [
		{
			"name": "create session",
			"event": [
				{
					"listen": "test",
					"script": {
						"exec": [
							"console.log(\"newSession\")",
							"var jsonBody = JSON.parse(responseBody);",
							"",
							"tests[\"Session created\"] = responseCode.code === 201;",
							"tests[\"Body has sessionId\"] = responseBody.has(\"sessionId\");",
							"tests[\"Body has uri\"] = responseBody.has(\"uri\");",
							"",
							"var sessionId = jsonBody.sessionId;",
							"postman.setGlobalVariable(\"sessionId\", sessionId);",
							"",
							""
						],
						"type": "text/javascript"
					}
				}
			],
			"request": {
				"method": "POST",
				"header": [
					{
						"key": "mainzellisteApiKey",
						"value": "{{mainzellisteApiKey}}"
					},
					{
						"key": "mainzellisteApiVersion",
						"value": "{{mainzellisteApiVersion}}"
					}
				],
				"url": {
					"raw": "{{url}}/sessions",
					"host": [
						"{{url}}"
					],
					"path": [
						"sessions"
					]
				}
			},
			"response": []
		},
		{
			"name": "create addPatientToken",
			"event": [
				{
					"listen": "test",
					"script": {
						"exec": [
							"var jsonBody = JSON.parse(responseBody);",
							"console.log(jsonBody);",
							"tests[\"Token created\"] = responseCode.code === 201;",
							"tests[\"Body has id\"] = responseBody.has(\"id\");",
							"tests[\"Type is addPatient\"] = jsonBody.type === \"addPatient\";",
							"tests[\"Body has data\"] = responseBody.has(\"data\");",
							"tests[\"Data has idTypes\"] = \"idTypes\" in jsonBody.data;",
							"tests[\"Data has idType pid\"] = jsonBody.data.idTypes.includes(\"pid\");",
							"tests[\"Data has idType pid2\"] = jsonBody.data.idTypes.includes(\"pid2\");",
							"",
							"var tokenId = jsonBody.id;",
							"postman.setGlobalVariable(\"tokenId\", tokenId);",
							"",
							"// Überprüfen, ob \"idTypes\" im \"data\"-Objekt enthalten ist",
							"if (\"data\" in jsonBody && \"idTypes\" in jsonBody.data) {",
							"    // Überprüfen, ob \"pid\" in \"idTypes\" enthalten ist",
							"    if (jsonBody.data.idTypes.includes(\"pid\")) {",
							"        tests[\"Response has idType 'pid'\"] = true;",
							"    } else {",
							"        tests[\"Response has idType 'pid'\"] = false;",
							"    }",
							"} else {",
							"    tests[\"Response has idType 'pid'\"] = false;",
							"}",
							""
						],
						"type": "text/javascript"
					}
				},
				{
					"listen": "prerequest",
					"script": {
						"exec": [
							""
						],
						"type": "text/javascript"
					}
				}
			],
			"request": {
				"method": "POST",
				"header": [
					{
						"key": "Content-Type",
						"value": "application/json"
					},
					{
						"key": "mainzellisteApiVersion",
						"value": "{{mainzellisteApiVersion}}",
						"type": "text"
					}
				],
				"body": {
					"mode": "raw",
					"raw": "{\r\n\t\"type\": \"addPatient\",\r\n    \"allowedUses\": \"10\",\r\n     \t\"data\": {\r\n     \t\t\"idtypes\": [\"pid\", \"pid2\"],\r\n            \"showPossibleMatches\": true\r\n    \t}\r\n}"
				},
				"url": {
					"raw": "{{url}}/sessions/{{sessionId}}/tokens",
					"host": [
						"{{url}}"
					],
					"path": [
						"sessions",
						"{{sessionId}}",
						"tokens"
					]
				}
			},
			"response": []
		},
		{
			"name": "addPatient: with pid and pid2",
			"event": [
				{
					"listen": "test",
					"script": {
						"exec": [
							"var jsonBody = JSON.parse(responseBody);",
							"console.log(jsonBody);",
							"tests[\"Patient created\"] = responseCode.code === 201;",
							"tests[\"idType is pid\"] = jsonBody[0].idType === \"pid\";",
							"tests[\"idType is pid2\"] = jsonBody[1].idType === \"pid2\";",
							"tests[\"Element has idString\"] = \"idString\" in jsonBody[0];",
							"tests[\"Element has tentative\"] = \"tentative\" in jsonBody[0];",
							"tests[\"Element has uri\"] = \"uri\" in jsonBody[0];"
						],
						"type": "text/javascript"
					}
				}
			],
			"request": {
				"method": "POST",
				"header": [
					{
						"key": "Content-Type",
						"value": "application/x-www-form-urlencoded"
					},
					{
						"key": "mainzellisteApiVersion",
						"value": "{{mainzellisteApiVersion}}"
					}
				],
				"body": {
					"mode": "urlencoded",
					"urlencoded": [
						{
							"key": "vorname",
							"value": "Ludwig",
							"type": "text"
						},
						{
							"key": "nachname",
							"value": "van Beethoven",
							"type": "text"
						},
						{
							"key": "geburtstag",
							"value": "17",
							"type": "text"
						},
						{
							"key": "geburtsmonat",
							"value": "12",
							"type": "text"
						},
						{
							"key": "geburtsjahr",
							"value": "1770",
							"type": "text"
						},
						{
							"key": "plz",
							"value": "53111",
							"type": "text"
						},
						{
							"key": "ort",
							"value": "Bonn",
							"type": "text"
						}
					]
				},
				"url": {
					"raw": "{{url}}/patients?tokenId={{tokenId}}",
					"host": [
						"{{url}}"
					],
					"path": [
						"patients"
					],
					"query": [
						{
							"key": "tokenId",
							"value": "{{tokenId}}"
						}
					]
				}
			},
			"response": []
		},
		{
			"name": "[1] create readPatientToken for pid and pid2",
			"event": [
				{
					"listen": "test",
					"script": {
						"exec": [
							"console.log(\"* Requested Token: \");",
							"var token = JSON.parse(pm.request.body.raw);",
							"console.log(token);",
							"",
							"// log error message if the test is broken",
							"if(pm.response.code !== 201) {",
							"    console.log(pm.response.text());",
							"}",
							"var jsonBody = JSON.parse(responseBody);",
							"postman.setGlobalVariable('tokenId', jsonBody.id);"
						],
						"type": "text/javascript"
					}
				},
				{
					"listen": "prerequest",
					"script": {
						"exec": [
							""
						],
						"type": "text/javascript"
					}
				}
			],
			"request": {
				"method": "POST",
				"header": [
					{
						"key": "Content-Type",
						"value": "application/json"
					},
					{
						"key": "mainzellisteApiVersion",
						"value": "{{mainzellisteApiVersion}}"
					}
				],
				"body": {
					"mode": "raw",
					"raw": "{\r\n\t\"type\": \"readPatients\",\r\n \t\"data\": {\r\n\t\t\"searchIds\": [\r\n            {\r\n\t\t\t\t\"idType\":\"pid\",\r\n\t\t\t\t\"idString\":\"0003Y0WZ\"\r\n\t\t\t}\r\n\t\t],\r\n\t\t\"resultFields\":[\"vorname\", \"nachname\", \"geburtstag\", \"geburtsmonat\", \"geburtsjahr\"],\r\n\t\t\"resultIds\":[\"pid2\"]\r\n\t}\r\n}"
				},
				"url": {
					"raw": "{{url}}/sessions/{{sessionId}}/tokens",
					"host": [
						"{{url}}"
					],
					"path": [
						"sessions",
						"{{sessionId}}",
						"tokens"
					]
				}
			},
			"response": []
		},
		{
			"name": "[S1] readPatient: patient with pid/pid2",
			"event": [
				{
					"listen": "test",
					"script": {
						"exec": [
							"pm.test('patient found', function() {",
							"    pm.response.to.have.status(200);",
							"    pm.response.to.be.withBody;",
							"    pm.response.to.be.string;",
							"    console.log(\"* Returned error message: \");",
							"    console.log(pm.response.text()); ",
							"});",
							"",
							"var jsonBody = JSON.parse(responseBody);",
							"tests[\"idType is pid2\"] = jsonBody[0].ids[0].idType === \"pid2\";",
							""
						],
						"type": "text/javascript"
					}
				}
			],
			"request": {
				"method": "GET",
				"header": [
					{
						"key": "mainzellisteApiVersion",
						"value": "{{mainzellisteApiVersion}}"
					}
				],
				"url": {
					"raw": "{{url}}/patients?tokenId={{tokenId}}",
					"host": [
						"{{url}}"
					],
					"path": [
						"patients"
					],
					"query": [
						{
							"key": "tokenId",
							"value": "{{tokenId}}"
						}
					]
				}
			},
			"response": []
		},
		{
			"name": "[2] create readPatientToken for pid",
			"event": [
				{
					"listen": "test",
					"script": {
						"exec": [
							"console.log(\"* Requested Token: \");",
							"var token = JSON.parse(pm.request.body.raw);",
							"console.log(token);",
							"",
							"// log error message if the test is broken",
							"if(pm.response.code !== 201) {",
							"    console.log(pm.response.text());",
							"}",
							"var jsonBody = JSON.parse(responseBody);",
							"postman.setGlobalVariable('tokenId', jsonBody.id);"
						],
						"type": "text/javascript"
					}
				},
				{
					"listen": "prerequest",
					"script": {
						"exec": [
							""
						],
						"type": "text/javascript"
					}
				}
			],
			"request": {
				"method": "POST",
				"header": [
					{
						"key": "Content-Type",
						"value": "application/json"
					},
					{
						"key": "mainzellisteApiVersion",
						"value": "{{mainzellisteApiVersion}}"
					}
				],
				"body": {
					"mode": "raw",
					"raw": "{\r\n\t\"type\": \"readPatients\",\r\n \t\"data\": {\r\n\t\t\"searchIds\": [\r\n            {\r\n\t\t\t\t\"idType\":\"pid\",\r\n\t\t\t\t\"idString\":\"0003Y0WZ\"\r\n\t\t\t}\r\n\t\t],\r\n\t\t\"resultFields\":[\"vorname\", \"nachname\", \"geburtstag\", \"geburtsmonat\", \"geburtsjahr\"],\r\n\t\t\"resultIds\":[\"pid\"]\r\n\t}\r\n}"
				},
				"url": {
					"raw": "{{url}}/sessions/{{sessionId}}/tokens",
					"host": [
						"{{url}}"
					],
					"path": [
						"sessions",
						"{{sessionId}}",
						"tokens"
					]
				}
			},
			"response": []
		},
		{
			"name": "[S2] readPatient: patient with pid",
			"event": [
				{
					"listen": "test",
					"script": {
						"exec": [
							"pm.test('patient found', function() {",
							"    pm.response.to.have.status(200);",
							"    pm.response.to.be.withBody;",
							"    pm.response.to.be.string;",
							"    console.log(\"* Returned error message: \");",
							"    console.log(pm.response.text()); ",
							"});",
							"",
							"var jsonBody = JSON.parse(responseBody);",
							"tests[\"idType is pid\"] = jsonBody[0].ids[0].idType === \"pid\";"
						],
						"type": "text/javascript"
					}
				}
			],
			"request": {
				"method": "GET",
				"header": [
					{
						"key": "mainzellisteApiVersion",
						"value": "{{mainzellisteApiVersion}}"
					}
				],
				"url": {
					"raw": "{{url}}/patients?tokenId={{tokenId}}",
					"host": [
						"{{url}}"
					],
					"path": [
						"patients"
					],
					"query": [
						{
							"key": "tokenId",
							"value": "{{tokenId}}"
						}
					]
				}
			},
			"response": []
		},
		{
			"name": "[3] create readPatientToken for pid2 and pid",
			"event": [
				{
					"listen": "test",
					"script": {
						"exec": [
							"console.log(\"* Requested Token: \");",
							"var token = JSON.parse(pm.request.body.raw);",
							"console.log(token);",
							"",
							"// log error message if the test is broken",
							"if(pm.response.code !== 201) {",
							"    console.log(pm.response.text());",
							"}",
							"var jsonBody = JSON.parse(responseBody);",
							"postman.setGlobalVariable('tokenId', jsonBody.id);"
						],
						"type": "text/javascript"
					}
				},
				{
					"listen": "prerequest",
					"script": {
						"exec": [
							""
						],
						"type": "text/javascript"
					}
				}
			],
			"request": {
				"method": "POST",
				"header": [
					{
						"key": "Content-Type",
						"value": "application/json"
					},
					{
						"key": "mainzellisteApiVersion",
						"value": "{{mainzellisteApiVersion}}"
					}
				],
				"body": {
					"mode": "raw",
					"raw": "{\r\n\t\"type\": \"readPatients\",\r\n \t\"data\": {\r\n\t\t\"searchIds\": [\r\n            {\r\n\t\t\t\t\"idType\":\"pid2\",\r\n\t\t\t\t\"idString\":\"0003Y0WZ\"\r\n\t\t\t}\r\n\t\t],\r\n\t\t\"resultFields\":[\"vorname\", \"nachname\", \"geburtstag\", \"geburtsmonat\", \"geburtsjahr\"],\r\n\t\t\"resultIds\":[\"pid\"]\r\n\t}\r\n}"
				},
				"url": {
					"raw": "{{url}}/sessions/{{sessionId}}/tokens",
					"host": [
						"{{url}}"
					],
					"path": [
						"sessions",
						"{{sessionId}}",
						"tokens"
					]
				}
			},
			"response": []
		},
		{
			"name": "[S3] readPatient: patient with pid2/pid",
			"event": [
				{
					"listen": "test",
					"script": {
						"exec": [
							"pm.test('patient found', function() {",
							"    pm.response.to.have.status(200);",
							"    pm.response.to.be.withBody;",
							"    pm.response.to.be.string;",
							"    console.log(\"* Returned error message: \");",
							"    console.log(pm.response.text()); ",
							"});",
							"",
							"var jsonBody = JSON.parse(responseBody);",
							"tests[\"idType is pid\"] = jsonBody[0].ids[0].idType === \"pid\";"
						],
						"type": "text/javascript"
					}
				}
			],
			"request": {
				"method": "GET",
				"header": [
					{
						"key": "mainzellisteApiVersion",
						"value": "{{mainzellisteApiVersion}}"
					}
				],
				"url": {
					"raw": "{{url}}/patients?tokenId={{tokenId}}",
					"host": [
						"{{url}}"
					],
					"path": [
						"patients"
					],
					"query": [
						{
							"key": "tokenId",
							"value": "{{tokenId}}"
						}
					]
				}
			},
			"response": []
		},
		{
			"name": "[4] create readPatientToken for pid2",
			"event": [
				{
					"listen": "test",
					"script": {
						"exec": [
							"console.log(\"* Requested Token: \");",
							"var token = JSON.parse(pm.request.body.raw);",
							"console.log(token);",
							"",
							"// log error message if the test is broken",
							"if(pm.response.code !== 201) {",
							"    console.log(pm.response.text());",
							"}",
							"var jsonBody = JSON.parse(responseBody);",
							"postman.setGlobalVariable('tokenId', jsonBody.id);"
						],
						"type": "text/javascript"
					}
				},
				{
					"listen": "prerequest",
					"script": {
						"exec": [
							""
						],
						"type": "text/javascript"
					}
				}
			],
			"request": {
				"method": "POST",
				"header": [
					{
						"key": "Content-Type",
						"value": "application/json"
					},
					{
						"key": "mainzellisteApiVersion",
						"value": "{{mainzellisteApiVersion}}"
					}
				],
				"body": {
					"mode": "raw",
					"raw": "{\r\n\t\"type\": \"readPatients\",\r\n \t\"data\": {\r\n\t\t\"searchIds\": [\r\n            {\r\n\t\t\t\t\"idType\":\"pid2\",\r\n\t\t\t\t\"idString\":\"0003Y0WZ\"\r\n\t\t\t}\r\n\t\t],\r\n\t\t\"resultFields\":[\"vorname\", \"nachname\", \"geburtstag\", \"geburtsmonat\", \"geburtsjahr\"],\r\n\t\t\"resultIds\":[\"pid2\"]\r\n\t}\r\n}"
				},
				"url": {
					"raw": "{{url}}/sessions/{{sessionId}}/tokens",
					"host": [
						"{{url}}"
					],
					"path": [
						"sessions",
						"{{sessionId}}",
						"tokens"
					]
				}
			},
			"response": []
		},
		{
			"name": "[S4] readPatient: patient with pid2",
			"event": [
				{
					"listen": "test",
					"script": {
						"exec": [
							"pm.test('patient found', function() {",
							"    pm.response.to.have.status(200);",
							"    pm.response.to.be.withBody;",
							"    pm.response.to.be.string;",
							"    console.log(\"* Returned error message: \");",
							"    console.log(pm.response.text()); ",
							"});",
							"",
							"var jsonBody = JSON.parse(responseBody);",
							"tests[\"idType is pid2\"] = jsonBody[0].ids[0].idType === \"pid2\";"
						],
						"type": "text/javascript"
					}
				}
			],
			"request": {
				"method": "GET",
				"header": [
					{
						"key": "mainzellisteApiVersion",
						"value": "{{mainzellisteApiVersion}}"
					}
				],
				"url": {
					"raw": "{{url}}/patients?tokenId={{tokenId}}",
					"host": [
						"{{url}}"
					],
					"path": [
						"patients"
					],
					"query": [
						{
							"key": "tokenId",
							"value": "{{tokenId}}"
						}
					]
				}
			},
			"response": []
		},
		{
			"name": "[5] create readPatientToken for both pid and pid2",
			"event": [
				{
					"listen": "test",
					"script": {
						"exec": [
							"console.log(\"* Requested Token: \");",
							"var token = JSON.parse(pm.request.body.raw);",
							"console.log(token);",
							"",
							"// log error message if the test is broken",
							"if(pm.response.code !== 201) {",
							"    console.log(pm.response.text());",
							"}",
							"var jsonBody = JSON.parse(responseBody);",
							"postman.setGlobalVariable('tokenId', jsonBody.id);"
						],
						"type": "text/javascript"
					}
				},
				{
					"listen": "prerequest",
					"script": {
						"exec": [
							""
						],
						"type": "text/javascript"
					}
				}
			],
			"request": {
				"method": "POST",
				"header": [
					{
						"key": "Content-Type",
						"value": "application/json"
					},
					{
						"key": "mainzellisteApiVersion",
						"value": "{{mainzellisteApiVersion}}"
					}
				],
				"body": {
					"mode": "raw",
					"raw": "{\r\n\t\"type\": \"readPatients\",\r\n \t\"data\": {\r\n\t\t\"searchIds\": [\r\n            {\r\n\t\t\t\t\"idType\":\"pid2\",\r\n\t\t\t\t\"idString\":\"0003Y0WZ\"\r\n\t\t\t}\r\n\t\t],\r\n\t\t\"resultFields\":[\"vorname\", \"nachname\", \"geburtstag\", \"geburtsmonat\", \"geburtsjahr\"],\r\n\t\t\"resultIds\":[\"pid\", \"pid2\"]\r\n\t}\r\n}"
				},
				"url": {
					"raw": "{{url}}/sessions/{{sessionId}}/tokens",
					"host": [
						"{{url}}"
					],
					"path": [
						"sessions",
						"{{sessionId}}",
						"tokens"
					]
				}
			},
			"response": []
		},
		{
			"name": "[S5] readPatient: patient with pid2 and pid",
			"event": [
				{
					"listen": "test",
					"script": {
						"exec": [
							"pm.test('patient found', function() {",
							"    pm.response.to.have.status(200);",
							"    pm.response.to.be.withBody;",
							"    pm.response.to.be.string;",
							"    console.log(\"* Returned error message: \");",
							"    console.log(pm.response.text()); ",
							"});",
							"",
							"var jsonBody = JSON.parse(responseBody);",
							"tests[\"idType is pid\"] = jsonBody[0].ids[0].idType === \"pid\";",
							"tests[\"idType is pid2\"] = jsonBody[0].ids[1].idType === \"pid2\";"
						],
						"type": "text/javascript"
					}
				}
			],
			"request": {
				"method": "GET",
				"header": [
					{
						"key": "mainzellisteApiVersion",
						"value": "{{mainzellisteApiVersion}}"
					}
				],
				"url": {
					"raw": "{{url}}/patients?tokenId={{tokenId}}",
					"host": [
						"{{url}}"
					],
					"path": [
						"patients"
					],
					"query": [
						{
							"key": "tokenId",
							"value": "{{tokenId}}"
						}
					]
				}
			},
			"response": []
		},
		{
			"name": "[6] create readPatientToken for both pid and pid2 part2",
			"event": [
				{
					"listen": "test",
					"script": {
						"exec": [
							"console.log(\"* Requested Token: \");",
							"var token = JSON.parse(pm.request.body.raw);",
							"console.log(token);",
							"",
							"// log error message if the test is broken",
							"if(pm.response.code !== 201) {",
							"    console.log(pm.response.text());",
							"}",
							"var jsonBody = JSON.parse(responseBody);",
							"postman.setGlobalVariable('tokenId', jsonBody.id);"
						],
						"type": "text/javascript"
					}
				},
				{
					"listen": "prerequest",
					"script": {
						"exec": [
							""
						],
						"type": "text/javascript"
					}
				}
			],
			"request": {
				"method": "POST",
				"header": [
					{
						"key": "Content-Type",
						"value": "application/json"
					},
					{
						"key": "mainzellisteApiVersion",
						"value": "{{mainzellisteApiVersion}}"
					}
				],
				"body": {
					"mode": "raw",
					"raw": "{\r\n\t\"type\": \"readPatients\",\r\n \t\"data\": {\r\n\t\t\"searchIds\": [\r\n            {\r\n\t\t\t\t\"idType\":\"pid\",\r\n\t\t\t\t\"idString\":\"0003Y0WZ\"\r\n\t\t\t}\r\n\t\t],\r\n\t\t\"resultFields\":[\"vorname\", \"nachname\", \"geburtstag\", \"geburtsmonat\", \"geburtsjahr\"],\r\n\t\t\"resultIds\":[\"pid\", \"pid2\"]\r\n\t}\r\n}"
				},
				"url": {
					"raw": "{{url}}/sessions/{{sessionId}}/tokens",
					"host": [
						"{{url}}"
					],
					"path": [
						"sessions",
						"{{sessionId}}",
						"tokens"
					]
				}
			},
			"response": []
		},
		{
			"name": "[S6] readPatient: patient with pid2 and pid part2",
			"event": [
				{
					"listen": "test",
					"script": {
						"exec": [
							"pm.test('patient found', function() {",
							"    pm.response.to.have.status(200);",
							"    pm.response.to.be.withBody;",
							"    pm.response.to.be.string;",
							"    console.log(\"* Returned error message: \");",
							"    console.log(pm.response.text()); ",
							"});",
							"",
							"var jsonBody = JSON.parse(responseBody);",
							"tests[\"idType is pid\"] = jsonBody[0].ids[0].idType === \"pid\";",
							"tests[\"idType is pid2\"] = jsonBody[0].ids[1].idType === \"pid2\";"
						],
						"type": "text/javascript"
					}
				}
			],
			"request": {
				"method": "GET",
				"header": [
					{
						"key": "mainzellisteApiVersion",
						"value": "{{mainzellisteApiVersion}}"
					}
				],
				"url": {
					"raw": "{{url}}/patients?tokenId={{tokenId}}",
					"host": [
						"{{url}}"
					],
					"path": [
						"patients"
					],
					"query": [
						{
							"key": "tokenId",
							"value": "{{tokenId}}"
						}
					]
				}
			},
			"response": []
		}
	]
}