{
	"info": {
		"_postman_id": "a653805a-6192-4f44-9850-cd967c86bab2",
		"name": "mainzelliste_oauth_invalid_ALL_subset_claim_not_exist",
		"schema": "https://schema.getpostman.com/json/collection/v2.1.0/collection.json"
	},
	"item": [
		{
			"name": "Auth0 Authentication",
			"event": [
				{
					"listen": "test",
					"script": {
						"id": "7679c4b5-5774-491c-ac9c-ea35bab2f6c9",
						"exec": [
							"console.log(\"Authentication\")",
							"",
							"",
							"var Ajv = require('ajv'),",
							"    ajv = new Ajv({logger: console}),",
							"    schema = {",
							"        \"properties\": {",
							"            \"access_token\": {",
							"                \"type\": \"string\"",
							"            },",
							"            \"expires_in\": {",
							"                \"type\": \"number\"",
							"            },",
							"             \"token_type\": {",
							"                \"type\": \"string\"",
							"            },",
							"            \"id_token\": {",
							"                \"type\": \"string\"",
							"            },",
							"             \"scope\": {",
							"                \"type\": \"string\"",
							"            }",
							"        }",
							"    };",
							"",
							"pm.test(\"Check StatusCode\", function(){",
							"    pm.response.to.have.status(\"OK\");",
							"});",
							"",
							"pm.test(\"Check ResponseSchema\", function(){",
							"     var jsonData = pm.response.json();",
							"     console.log(jsonData.access_token)",
							"     pm.expect(ajv.validate(schema, jsonData)).to.be.true;",
							"     pm.collectionVariables.set(\"access_token\", jsonData.access_token);",
							"});",
							""
						],
						"type": "text/javascript"
					}
				}
			],
			"request": {
				"method": "POST",
				"header": [
					{
						"key": "response_type",
						"value": "token",
						"type": "text"
					}
				],
				"body": {
					"mode": "raw",
					"raw": "{\"client_id\":\"CYYmWTcDvVNDbo8N5y1JbGti43AY8N0G\",\"client_secret\":\"mfwmbaHA-sbq-O-6VNyQfP_0ZWPXOTYGr5-zRMkUcLgZkE9u4c0bwVwVICaHIO6L\",\"audience\":\"audience\",\"grant_type\":\"password\",\n\"username\": \"mainzelliste@test.de\", \"password\": \",<U~,8gp\", \"scope\": \"openid\", \"response_type\": \"token\"\n}",
					"options": {
						"raw": {
							"language": "json"
						}
					}
				},
				"url": {
					"raw": "https://dev-ptsul9wq.eu.auth0.com/oauth/token",
					"protocol": "https",
					"host": [
						"dev-ptsul9wq",
						"eu",
						"auth0",
						"com"
					],
					"path": [
						"oauth",
						"token"
					]
				}
			},
			"response": []
		},
		{
			"name": "NEW_SESSION - Sitzung anlegen",
			"event": [
				{
					"listen": "test",
					"script": {
						"id": "554ff1e9-3b11-4e47-b59c-fd0ecd08c01f",
						"exec": [
							"console.log(\"New Session\")",
							"",
							"",
							"var Ajv = require('ajv'),",
							"    ajv = new Ajv({logger: console}),",
							"    schema = {",
							"        \"properties\": {",
							"            \"sessionId\": {",
							"                \"type\": \"string\"",
							"            },",
							"            \"uri\": {",
							"                \"type\": \"string\"",
							"            }",
							"        }",
							"    };",
							"",
							"pm.test(\"Check StatusCode\", function(){",
							"    pm.response.to.have.status(401);",
							"});",
							"",
							"pm.test(\"Check ResponseSchema\", function(){",
							"      pm.expect(pm.response.text()).to.include(\"Access token could not been validated\")",
							"});",
							"",
							"",
							"",
							"",
							"",
							""
						],
						"type": "text/javascript"
					}
				},
				{
					"listen": "prerequest",
					"script": {
						"id": "97f833b0-23d0-4919-b0c3-695c25e10133",
						"exec": [
							""
						],
						"type": "text/javascript"
					}
				}
			],
			"request": {
				"auth": {
					"type": "oauth2",
					"oauth2": [
						{
							"key": "accessToken",
							"value": "{{access_token}}",
							"type": "string"
						},
						{
							"key": "tokenType",
							"value": "Bearer",
							"type": "string"
						},
						{
							"key": "addTokenTo",
							"value": "header",
							"type": "string"
						}
					]
				},
				"method": "POST",
				"header": [
					{
						"key": "mainzellisteApiKey",
						"value": "{{mainzellisteApiKey}}",
						"disabled": true
					},
					{
						"key": "mainzellisteApiVersion",
						"value": "{{mainzellisteApiVersion}}"
					}
				],
				"url": {
					"raw": "{{url}}/sessions",
					"host": [
						"{{url}}"
					],
					"path": [
						"sessions"
					]
				}
			},
			"response": []
		}
	],
	"event": [
		{
			"listen": "prerequest",
			"script": {
				"id": "3b2bb652-c67d-4873-865d-4390203770df",
				"type": "text/javascript",
				"exec": [
					""
				]
			}
		},
		{
			"listen": "test",
			"script": {
				"id": "5836d073-17d0-4e82-afd7-c15e6820eea5",
				"type": "text/javascript",
				"exec": [
					""
				]
			}
		}
	],
	"variable": [
		{
			"id": "d64aa7f0-db31-41ed-8957-ae8277636f0b",
			"key": "access_token",
			"value": ""
		}
	],
	"protocolProfileBehavior": {}
}